Datacamp: Modeling with Data in the Tidyverse
…
# Get regression table
get_regression_table(model_score_2)

## # A tibble: 2 x 7
##   term      estimate std_error statistic p_value lower_ci upper_ci
##   <chr>        <dbl>     <dbl>     <dbl>   <dbl>    <dbl>    <dbl>
## 1 intercept    3.88      0.076     51.0        0    3.73     4.03 
## 2 bty_avg      0.067     0.016      4.09       0    0.035    0.099

# Get all fitted/predicted values and residuals
get_regression_points(model_score_2)

## # A tibble: 463 x 5
##       ID score bty_avg score_hat residual
##    <int> <dbl>   <dbl>     <dbl>    <dbl>
##  1     1   4.7    5         4.21    0.486
##  2     2   4.1    5         4.21   -0.114
##  3     3   3.9    5         4.21   -0.314
##  4     4   4.8    5         4.21    0.586
##  5     5   4.6    3         4.08    0.52 
##  6     6   4.3    3         4.08    0.22 
##  7     7   2.8    3         4.08   -1.28 
##  8     8   4.1    3.33      4.10   -0.002
##  9     9   3.4    3.33      4.10   -0.702
## 10    10   4.5    3.17      4.09    0.409
## #  with 453 more rows
…
# Get regression table
get_regression_table(model_score_2)

## # A tibble: 2 x 7
##   term      estimate std_error statistic p_value lower_ci upper_ci
##   <chr>        <dbl>     <dbl>     <dbl>   <dbl>    <dbl>    <dbl>
## 1 intercept    3.88      0.076     51.0        0    3.73     4.03 
## 2 bty_avg      0.067     0.016      4.09       0    0.035    0.099

# Get all fitted/predicted values and residuals
get_regression_points(model_score_2) %>% 
  mutate(score_hat_2 = 3.88 + 0.067 * bty_avg)

## # A tibble: 463 x 6
##       ID score bty_avg score_hat residual score_hat_2
##    <int> <dbl>   <dbl>     <dbl>    <dbl>       <dbl>
##  1     1   4.7    5         4.21    0.486        4.22
##  2     2   4.1    5         4.21   -0.114        4.22
##  3     3   3.9    5         4.21   -0.314        4.22
##  4     4   4.8    5         4.21    0.586        4.22
##  5     5   4.6    3         4.08    0.52         4.08
##  6     6   4.3    3         4.08    0.22         4.08
##  7     7   2.8    3         4.08   -1.28         4.08
##  8     8   4.1    3.33      4.10   -0.002        4.10
##  9     9   3.4    3.33      4.10   -0.702        4.10
## 10    10   4.5    3.17      4.09    0.409        4.09
## #  with 453 more rows
…
# Get regression table
get_regression_table(model_score_2)

## # A tibble: 2 x 7
##   term      estimate std_error statistic p_value lower_ci upper_ci
##   <chr>        <dbl>     <dbl>     <dbl>   <dbl>    <dbl>    <dbl>
## 1 intercept    3.88      0.076     51.0        0    3.73     4.03 
## 2 bty_avg      0.067     0.016      4.09       0    0.035    0.099

# Get all fitted/predicted values and residuals
get_regression_points(model_score_2) %>% 
  mutate(residual_2 = score - score_hat)

## # A tibble: 463 x 6
##       ID score bty_avg score_hat residual residual_2
##    <int> <dbl>   <dbl>     <dbl>    <dbl>      <dbl>
##  1     1   4.7    5         4.21    0.486      0.486
##  2     2   4.1    5         4.21   -0.114     -0.114
##  3     3   3.9    5         4.21   -0.314     -0.314
##  4     4   4.8    5         4.21    0.586      0.586
##  5     5   4.6    3         4.08    0.52       0.520
##  6     6   4.3    3         4.08    0.22       0.220
##  7     7   2.8    3         4.08   -1.28      -1.28 
##  8     8   4.1    3.33      4.10   -0.002     -0.002
##  9     9   3.4    3.33      4.10   -0.702     -0.702
## 10    10   4.5    3.17      4.09    0.409      0.409
## #  with 453 more rows
…
